…
In the first example, I scale the penguins dataset. I only use the first
five columns to illustrate (because it makes sense to scale these
numeric variables, rather than some other numeric ones). The output data
looks good to me. All the numeric variables are scaled.

``` r
penguins[1:5]->penguins_subsample

# I scale each observation by the median number in its species.

scale_by_median(penguins_subsample,species)
```

    ## # A tibble: 342 × 5
    ## # Groups:   species [3]
    ##    species island    bill_length_mm bill_depth_mm flipper_length_mm
    ##    <fct>   <fct>              <dbl>         <dbl>             <dbl>
    ##  1 Adelie  Torgersen        0.00773        0.0163           -0.0474
    ##  2 Adelie  Torgersen        0.0180        -0.0543           -0.0211
    ##  3 Adelie  Torgersen        0.0387        -0.0217            0.0263
    ##  4 Adelie  Torgersen       -0.0541         0.0489            0.0158
    ##  5 Adelie  Torgersen        0.0129         0.120             0     
    ##  6 Adelie  Torgersen        0.00258       -0.0326           -0.0474
    ##  7 Adelie  Torgersen        0.0103         0.0652            0.0263
    ##  8 Adelie  Torgersen       -0.121         -0.0163            0.0158
    ##  9 Adelie  Torgersen        0.0825         0.0978            0     
    ## 10 Adelie  Torgersen       -0.0258        -0.0707           -0.0211
    ## # … with 332 more rows
In the second example, I scale the cancer dataset. I only use the 2-6
columns to illustrate (because the first column is the numeric cancer ID
and it doesn’t make sense to scale the cancer ID). The output data looks
good to me. All the numeric variables are scaled.

``` r
datateachr::cancer_sample[2:6]->cancer_subsample


# I scale each observation by the median number in its diagnosis.

scale_by_median(cancer_subsample,diagnosis)
```

    ## # A tibble: 569 × 5
    ## # Groups:   diagnosis [2]
    ##    diagnosis radius_mean texture_mean perimeter_mean area_mean
    ##    <chr>           <dbl>        <dbl>          <dbl>     <dbl>
    ##  1 M              0.0384     -0.516           0.0753    0.0740
    ##  2 M              0.187      -0.172           0.164     0.423 
    ##  3 M              0.137      -0.00979         0.138     0.291 
    ##  4 M             -0.341      -0.0503         -0.321    -0.586 
    ##  5 M              0.171      -0.332           0.183     0.392 
    ##  6 M             -0.281      -0.268          -0.277    -0.488 
    ##  7 M              0.0534     -0.0690          0.0473    0.116 
    ##  8 M             -0.209      -0.0294         -0.210    -0.380 
    ##  9 M             -0.250       0.0168         -0.234    -0.442 
    ## 10 M             -0.281       0.120          -0.265    -0.489 
    ## # … with 559 more rows
…
